Lucky_number_game/Lucky_number_game.sim/sim_1/behav/xsim/simulate.log
Time resolution is 1 ps
                   0 clk=0 rst=1 button_in=0000 | state0=00 state1=00 state2=00 state3=00 | read_done=0000
                  10 clk=1 rst=1 button_in=0000 | state0=00 state1=00 state2=00 state3=00 | read_done=0000
                  20 clk=0 rst=1 button_in=0000 | state0=00 state1=00 state2=00 state3=00 | read_done=0000
                  30 clk=1 rst=1 button_in=0000 | state0=00 state1=00 state2=00 state3=00 | read_done=0000
                  40 clk=0 rst=1 button_in=0000 | state0=00 state1=00 state2=00 state3=00 | read_done=0000
                  50 clk=1 rst=0 button_in=0000 | state0=00 state1=00 state2=00 state3=00 | read_done=0000
                  60 clk=0 rst=0 button_in=0000 | state0=00 state1=00 state2=00 state3=00 | read_done=0000
                  70 clk=1 rst=0 button_in=0000 | state0=00 state1=00 state2=00 state3=00 | read_done=0000
                  80 clk=0 rst=0 button_in=0000 | state0=00 state1=00 state2=00 state3=00 | read_done=0000
                  90 clk=1 rst=0 button_in=0000 | state0=00 state1=00 state2=00 state3=00 | read_done=0000
                 100 clk=0 rst=0 button_in=0000 | state0=00 state1=00 state2=00 state3=00 | read_done=0000
                 110 clk=1 rst=0 button_in=0000 | state0=00 state1=00 state2=00 state3=00 | read_done=0000
                 120 clk=0 rst=0 button_in=0000 | state0=00 state1=00 state2=00 state3=00 | read_done=0000
                 130 clk=1 rst=0 button_in=0000 | state0=00 state1=00 state2=00 state3=00 | read_done=0000
                 140 clk=0 rst=0 button_in=0000 | state0=00 state1=00 state2=00 state3=00 | read_done=0000
                 150 clk=1 rst=0 button_in=0001 | state0=00 state1=00 state2=00 state3=00 | read_done=0000
                 160 clk=0 rst=0 button_in=0001 | state0=00 state1=00 state2=00 state3=00 | read_done=0000
                 170 clk=1 rst=0 button_in=0001 | state0=00 state1=00 state2=00 state3=00 | read_done=0000
                 180 clk=0 rst=0 button_in=0001 | state0=00 state1=00 state2=00 state3=00 | read_done=0000
                 190 clk=1 rst=0 button_in=0001 | state0=00 state1=00 state2=00 state3=00 | read_done=0000
                 200 clk=0 rst=0 button_in=0001 | state0=00 state1=00 state2=00 state3=00 | read_done=0000
                 210 clk=1 rst=0 button_in=0001 | state0=00 state1=00 state2=00 state3=00 | read_done=0000
                 220 clk=0 rst=0 button_in=0001 | state0=00 state1=00 state2=00 state3=00 | read_done=0000
                 230 clk=1 rst=0 button_in=0001 | state0=00 state1=00 state2=00 state3=00 | read_done=0000
                 240 clk=0 rst=0 button_in=0001 | state0=00 state1=00 state2=00 state3=00 | read_done=0000
                 250 clk=1 rst=0 button_in=0010 | state0=00 state1=00 state2=00 state3=00 | read_done=0000
                 260 clk=0 rst=0 button_in=0010 | state0=00 state1=00 state2=00 state3=00 | read_done=0000
                 270 clk=1 rst=0 button_in=0010 | state0=00 state1=00 state2=00 state3=00 | read_done=0000
                 280 clk=0 rst=0 button_in=0010 | state0=00 state1=00 state2=00 state3=00 | read_done=0000
                 290 clk=1 rst=0 button_in=0010 | state0=00 state1=00 state2=00 state3=00 | read_done=0000
                 300 clk=0 rst=0 button_in=0010 | state0=00 state1=00 state2=00 state3=00 | read_done=0000
                 310 clk=1 rst=0 button_in=0010 | state0=00 state1=00 state2=00 state3=00 | read_done=0000
                 320 clk=0 rst=0 button_in=0010 | state0=00 state1=00 state2=00 state3=00 | read_done=0000
                 330 clk=1 rst=0 button_in=0010 | state0=00 state1=00 state2=00 state3=00 | read_done=0000
                 340 clk=0 rst=0 button_in=0010 | state0=00 state1=00 state2=00 state3=00 | read_done=0000
                 350 clk=1 rst=0 button_in=0100 | state0=00 state1=00 state2=00 state3=00 | read_done=0000
                 360 clk=0 rst=0 button_in=0100 | state0=00 state1=00 state2=00 state3=00 | read_done=0000
                 370 clk=1 rst=0 button_in=0100 | state0=00 state1=00 state2=00 state3=00 | read_done=0000
                 380 clk=0 rst=0 button_in=0100 | state0=00 state1=00 state2=00 state3=00 | read_done=0000
                 390 clk=1 rst=0 button_in=0100 | state0=00 state1=00 state2=00 state3=00 | read_done=0000
                 400 clk=0 rst=0 button_in=0100 | state0=00 state1=00 state2=00 state3=00 | read_done=0000
                 410 clk=1 rst=0 button_in=0100 | state0=00 state1=00 state2=00 state3=00 | read_done=0000
                 420 clk=0 rst=0 button_in=0100 | state0=00 state1=00 state2=00 state3=00 | read_done=0000
                 430 clk=1 rst=0 button_in=0100 | state0=00 state1=00 state2=00 state3=00 | read_done=0000
                 440 clk=0 rst=0 button_in=0100 | state0=00 state1=00 state2=00 state3=00 | read_done=0000
                 450 clk=1 rst=0 button_in=1000 | state0=00 state1=00 state2=00 state3=00 | read_done=0000
                 460 clk=0 rst=0 button_in=1000 | state0=00 state1=00 state2=00 state3=00 | read_done=0000
                 470 clk=1 rst=0 button_in=1000 | state0=00 state1=00 state2=00 state3=00 | read_done=0000
                 480 clk=0 rst=0 button_in=1000 | state0=00 state1=00 state2=00 state3=00 | read_done=0000
                 490 clk=1 rst=0 button_in=1000 | state0=00 state1=00 state2=00 state3=00 | read_done=0000
                 500 clk=0 rst=0 button_in=0000 | state0=00 state1=00 state2=00 state3=00 | read_done=0000
                 510 clk=1 rst=0 button_in=0000 | state0=00 state1=00 state2=00 state3=00 | read_done=0000
                 520 clk=0 rst=0 button_in=0000 | state0=00 state1=00 state2=00 state3=00 | read_done=0000
                 530 clk=1 rst=0 button_in=0000 | state0=00 state1=00 state2=00 state3=00 | read_done=0000
                 540 clk=0 rst=0 button_in=0000 | state0=00 state1=00 state2=00 state3=00 | read_done=0000
                 550 clk=1 rst=0 button_in=0000 | state0=00 state1=00 state2=00 state3=00 | read_done=0000
                 560 clk=0 rst=0 button_in=0000 | state0=00 state1=00 state2=00 state3=00 | read_done=0000
                 570 clk=1 rst=0 button_in=0000 | state0=00 state1=00 state2=00 state3=00 | read_done=0000
                 580 clk=0 rst=0 button_in=0000 | state0=00 state1=00 state2=00 state3=00 | read_done=0000
                 590 clk=1 rst=0 button_in=0000 | state0=00 state1=00 state2=00 state3=00 | read_done=0000
                 600 clk=0 rst=0 button_in=0000 | state0=00 state1=00 state2=00 state3=00 | read_done=0000
                 610 clk=1 rst=0 button_in=0000 | state0=00 state1=00 state2=00 state3=00 | read_done=0000
                 620 clk=0 rst=0 button_in=0000 | state0=00 state1=00 state2=00 state3=00 | read_done=0000
                 630 clk=1 rst=0 button_in=0000 | state0=00 state1=00 state2=00 state3=00 | read_done=0000
                 640 clk=0 rst=0 button_in=0000 | state0=00 state1=00 state2=00 state3=00 | read_done=0000
                 650 clk=1 rst=0 button_in=0000 | state0=00 state1=00 state2=00 state3=00 | read_done=0000
                 660 clk=0 rst=0 button_in=0000 | state0=00 state1=00 state2=00 state3=00 | read_done=0000
                 670 clk=1 rst=0 button_in=0000 | state0=00 state1=00 state2=00 state3=00 | read_done=0000
                 680 clk=0 rst=0 button_in=0000 | state0=00 state1=00 state2=00 state3=00 | read_done=0000
                 690 clk=1 rst=0 button_in=0000 | state0=00 state1=00 state2=00 state3=00 | read_done=0000
                 700 clk=0 rst=0 button_in=0000 | state0=00 state1=00 state2=00 state3=00 | read_done=0000
                 710 clk=1 rst=0 button_in=0000 | state0=00 state1=00 state2=00 state3=00 | read_done=0000
                 720 clk=0 rst=0 button_in=0000 | state0=00 state1=00 state2=00 state3=00 | read_done=0000
                 730 clk=1 rst=0 button_in=0000 | state0=00 state1=00 state2=00 state3=00 | read_done=0000
                 740 clk=0 rst=0 button_in=0000 | state0=00 state1=00 state2=00 state3=00 | read_done=0000
                 750 clk=1 rst=0 button_in=0000 | state0=00 state1=00 state2=00 state3=00 | read_done=0000
                 760 clk=0 rst=0 button_in=0000 | state0=00 state1=00 state2=00 state3=00 | read_done=0000
                 770 clk=1 rst=0 button_in=0000 | state0=00 state1=00 state2=00 state3=00 | read_done=0000
                 780 clk=0 rst=0 button_in=0000 | state0=00 state1=00 state2=00 state3=00 | read_done=0000
                 790 clk=1 rst=0 button_in=0000 | state0=00 state1=00 state2=00 state3=00 | read_done=0000
                 800 clk=0 rst=0 button_in=0000 | state0=00 state1=00 state2=00 state3=00 | read_done=0000
                 810 clk=1 rst=0 button_in=0000 | state0=00 state1=00 state2=00 state3=00 | read_done=0000
                 820 clk=0 rst=0 button_in=0000 | state0=00 state1=00 state2=00 state3=00 | read_done=0000
                 830 clk=1 rst=0 button_in=0000 | state0=00 state1=00 state2=00 state3=00 | read_done=0000
                 840 clk=0 rst=0 button_in=0000 | state0=00 state1=00 state2=00 state3=00 | read_done=0000
                 850 clk=1 rst=0 button_in=0000 | state0=00 state1=00 state2=00 state3=00 | read_done=0000
                 860 clk=0 rst=0 button_in=0000 | state0=00 state1=00 state2=00 state3=00 | read_done=0000
                 870 clk=1 rst=0 button_in=0000 | state0=00 state1=00 state2=00 state3=00 | read_done=0000
                 880 clk=0 rst=0 button_in=0000 | state0=00 state1=00 state2=00 state3=00 | read_done=0000
                 890 clk=1 rst=0 button_in=0000 | state0=00 state1=00 state2=00 state3=00 | read_done=0000
                 900 clk=0 rst=0 button_in=0000 | state0=00 state1=00 state2=00 state3=00 | read_done=0000
                 910 clk=1 rst=0 button_in=0000 | state0=00 state1=00 state2=00 state3=00 | read_done=0000
                 920 clk=0 rst=0 button_in=0000 | state0=00 state1=00 state2=00 state3=00 | read_done=0000
                 930 clk=1 rst=0 button_in=0000 | state0=00 state1=00 state2=00 state3=00 | read_done=0000
                 940 clk=0 rst=0 button_in=0000 | state0=00 state1=00 state2=00 state3=00 | read_done=0000
                 950 clk=1 rst=0 button_in=0000 | state0=00 state1=00 state2=00 state3=00 | read_done=0000
                 960 clk=0 rst=0 button_in=0000 | state0=00 state1=00 state2=00 state3=00 | read_done=0000
                 970 clk=1 rst=0 button_in=0000 | state0=00 state1=00 state2=00 state3=00 | read_done=0000
                 980 clk=0 rst=0 button_in=0000 | state0=00 state1=00 state2=00 state3=00 | read_done=0000
                 990 clk=1 rst=0 button_in=0000 | state0=00 state1=00 state2=00 state3=00 | read_done=0000
$finish called at time : 1 us : File "D:/Vivado/Git_Lucky_number_game/Lucky_number_game/Lucky_number_game.srcs/sim_1/new/fsmForButton_tb.v" Line 69
